…
Confirmed that there are no Denny’s locations outside of the US!

### Exercise 6

Adding a “country” variable to the Denny’s dataset:

``` r
dennys %>%
  mutate(country = "United States")
```

    ## # A tibble: 1,643 × 7
    ##    address                        city       state zip   longi…¹ latit…² country
    ##    <chr>                          <chr>      <chr> <chr>   <dbl>   <dbl> <chr>  
    ##  1 2900 Denali                    Anchorage  AK    99503  -150.     61.2 United…
    ##  2 3850 Debarr Road               Anchorage  AK    99508  -150.     61.2 United…
    ##  3 1929 Airport Way               Fairbanks  AK    99701  -148.     64.8 United…
    ##  4 230 Connector Dr               Auburn     AL    36849   -85.5    32.6 United…
    ##  5 224 Daniel Payne Drive N       Birmingham AL    35207   -86.8    33.6 United…
    ##  6 900 16th St S, Commons on Gree Birmingham AL    35294   -86.8    33.5 United…
    ##  7 5931 Alabama Highway, #157     Cullman    AL    35056   -86.9    34.2 United…
    ##  8 2190 Ross Clark Circle         Dothan     AL    36301   -85.4    31.2 United…
    ##  9 900 Tyson Rd                   Hope Hull… AL    36043   -86.4    32.2 United…
    ## 10 4874 University Drive          Huntsville AL    35816   -86.7    34.7 United…
    ## # … with 1,633 more rows, and abbreviated variable names ¹​longitude, ²​latitude
…
Wow, it’s the shape of the US!

I’m going to compute a new variable to determine which states have the
most Denny’s and La Quinta locations per thousand square miles.

``` r
dn_freq %>%
  mutate(per1000sqmi = (n/area)*1000) %>%
  arrange(desc(per1000sqmi))
```

    ## # A tibble: 51 × 5
    ##    state     n name                     area per1000sqmi
    ##    <chr> <int> <chr>                   <dbl>       <dbl>
    ##  1 DC        2 District of Columbia     68.3      29.3  
    ##  2 RI        5 Rhode Island           1545.        3.24 
    ##  3 CA      403 California           163695.        2.46 
    ##  4 CT       12 Connecticut            5543.        2.16 
    ##  5 FL      140 Florida               65758.        2.13 
    ##  6 MD       26 Maryland              12406.        2.10 
    ##  7 NJ       10 New Jersey             8723.        1.15 
    ##  8 NY       56 New York              54555.        1.03 
    ##  9 IN       37 Indiana               36420.        1.02 
    ## 10 OH       44 Ohio                  44826.        0.982
    ## # … with 41 more rows

``` r
lq_freq %>%
  mutate(per1000sqmi = (n/area)*1000) %>%
  arrange(desc(per1000sqmi))
```

    ## # A tibble: 48 × 5
    ##    state     n name             area per1000sqmi
    ##    <chr> <int> <chr>           <dbl>       <dbl>
    ##  1 RI        2 Rhode Island    1545.       1.29 
    ##  2 FL       74 Florida        65758.       1.13 
    ##  3 CT        6 Connecticut     5543.       1.08 
    ##  4 MD       13 Maryland       12406.       1.05 
    ##  5 TX      237 Texas         268596.       0.882
    ##  6 TN       30 Tennessee      42144.       0.712
    ##  7 GA       41 Georgia        59425.       0.690
    ##  8 NJ        5 New Jersey      8723.       0.573
    ##  9 MA        6 Massachusetts  10554.       0.568
    ## 10 LA       28 Louisiana      52378.       0.535
    ## # … with 38 more rows
…
